<svg viewBox="0 0 117 138" version="1.1" xmlns="http://www.w3.org/2000/svg" xmlns:xlink="http://www.w3.org/1999/xlink">
<title>Group</title>
<desc>Created using Figma</desc>
<g id="Canvas" transform="translate(-44 -170)">
<g id="Group">
<g id="Vector 2">
<use xlink:href="#path0_stroke" transform="matrix(-1 0 0 1 159.5 177.5)" fill="#F2C94C"/>
</g>
<g id="Rectangle 5">
<use xlink:href="#path1_stroke" transform="matrix(0.0996682 0.995021 -0.995021 0.0996682 88.4551 174)" fill="#F2C94C"/>
</g>
</g>
</g>
<defs>
<path id="path0_stroke" d="M -1.43592 117.733C 24.9254 127.872 47.8674 131.742 66.3332 130.125C 84.8294 128.506 99.1342 121.328 107.433 109.124C 115.713 96.9466 117.467 80.5675 112.576 61.6696C 107.686 42.7766 96.0914 21.0214 77.1137 -2.51101L 70.8863 2.51101C 89.4086 25.4786 100.314 46.2234 104.831 63.6741C 109.346 81.12 107.412 94.9284 100.817 104.626C 94.2408 114.297 82.4831 120.681 65.6356 122.156C 48.7576 123.633 27.0746 120.128 1.43592 110.267L -1.43592 117.733Z"/>
<path id="path1_stroke" d="M 0 0L 0 -3.5L -3.5 -3.5L -3.5 0L 0 0ZM 0 3.5L 25.5825 3.5L 25.5825 -3.5L 0 -3.5L 0 3.5ZM 3.5 25.5825L 3.5 0L -3.5 0L -3.5 25.5825L 3.5 25.5825Z"/>
</defs>
</svg>
