<svg width="118" height="127" viewBox="0 0 118 127" version="1.1" xmlns="http://www.w3.org/2000/svg" xmlns:xlink="http://www.w3.org/1999/xlink">
<title>Group</title>
<desc>Created using Figma</desc>
<g id="Canvas" transform="translate(-50 -709)">
<g id="Group">
<g id="Vector 2">
<use xlink:href="#path0_stroke" transform="matrix(-1 0 0 -1 166 828.796)" fill="#F2C94C"/>
</g>
<g id="Rectangle 5">
<use xlink:href="#path1_stroke" transform="matrix(0.109453 -0.993992 -0.995874 -0.0907424 94.4974 832)" fill="#F2C94C"/>
</g>
</g>
</g>
<defs>
<path id="path0_stroke" d="M -1.32097 108.145C 25.1884 117.42 48.2206 120.946 66.727 119.472C 85.2156 118 99.598 111.481 108 100.242C 116.445 88.9444 118.215 73.7309 113.251 56.283C 108.298 38.8746 96.5783 18.9005 77.4699 -2.65352L 71.4836 2.65352C 90.1167 23.6714 101.042 42.6071 105.556 58.4723C 110.059 74.2981 108.118 86.722 101.592 95.4518C 95.0228 104.24 83.1747 110.137 66.092 111.498C 49.0269 112.856 27.1466 109.63 1.32097 100.594L -1.32097 108.145Z"/>
<path id="path1_stroke" d="M 0 0L 0 -3.5L -3.5 -3.5L -3.5 0L 0 0ZM 0 3.5L 23.4456 3.5L 23.4456 -3.5L 0 -3.5L 0 3.5ZM 3.5 25.7252L 3.5 0L -3.5 0L -3.5 25.7252L 3.5 25.7252Z"/>
</defs>
</svg>
